ML Disney Sentiments
…
Computational engine: glmnet 

Now we prepare a ‘tuning’ process whereby we will run the algorithm above 25 times in different ways, so we can see which is best. This is important with ‘unlabelled’ data. In fact the process below is very handy if you want to create, say, a dictionary of positive and negative words.

lambda_grid <- grid_regular(penalty(), levels = 40)

set.seed(123)
review_folds <- bootstraps(review_train, strata = polar)
review_folds

# Bootstrap sampling using stratification 
# A tibble: 25 × 2
   splits               id         
   <list>               <chr>      
 1 <split [18483/6851]> Bootstrap01
 2 <split [18483/6797]> Bootstrap02
 3 <split [18483/6785]> Bootstrap03
 4 <split [18483/6810]> Bootstrap04
 5 <split [18483/6802]> Bootstrap05
 6 <split [18483/6815]> Bootstrap06
 7 <split [18483/6829]> Bootstrap07
 8 <split [18483/6788]> Bootstrap08
 9 <split [18483/6882]> Bootstrap09
10 <split [18483/6821]> Bootstrap10
# ℹ 15 more rows
…
doParallel::registerDoParallel()

set.seed(2023)

lasso_grid <- tune_grid(
  lasso_wf,
  resamples = review_folds,
  grid = lambda_grid,
  metrics = metric_set(roc_auc, ppv, npv)
)

lasso_grid %>%
  collect_metrics()

# A tibble: 120 × 7
    penalty .metric .estimator  mean     n  std_err .config              
      <dbl> <chr>   <chr>      <dbl> <int>    <dbl> <chr>                
 1 1   e-10 npv     binary     0.979    25 0.000365 Preprocessor1_Model01
 2 1   e-10 ppv     binary     0.539    25 0.00493  Preprocessor1_Model01
 3 1   e-10 roc_auc binary     0.935    25 0.00298  Preprocessor1_Model01
 4 1.80e-10 npv     binary     0.979    25 0.000365 Preprocessor1_Model02
 5 1.80e-10 ppv     binary     0.539    25 0.00493  Preprocessor1_Model02
 6 1.80e-10 roc_auc binary     0.935    25 0.00298  Preprocessor1_Model02
 7 3.26e-10 npv     binary     0.979    25 0.000365 Preprocessor1_Model03
 8 3.26e-10 ppv     binary     0.539    25 0.00493  Preprocessor1_Model03
 9 3.26e-10 roc_auc binary     0.935    25 0.00298  Preprocessor1_Model03
10 5.88e-10 npv     binary     0.979    25 0.000365 Preprocessor1_Model04
# ℹ 110 more rows
…
